{
	"espSala" : [
		{
			"elementh1": "<h1>",
			"titleh1": "Menu de la sala de espera",
			"elementForm": "<form>",
			"method": "post",
			"elementButton": "<button>",
			"typeButton": "submit",
			"classButton": "btn btn-primary"
		}
	],
	"llamarPac": [
		{
			"actionFormLlamarP": "Main_Barra_Neurologia?op=YendoFormularioLlamar",
			"titleButton": "Llamar al paciente"
		}
	],
	"entrarCon": [
		{
			"actionFormEntrarC": "Main_Barra_Neurologia?op=barraEntrarConsulta",
			"titleButton": "Entrar a la consulta"
		}

	],
	"volverInicio": [
		{
			"actionFormVolver": "Main_Barra?op=barraVolviendoInicio",
			"titleButton": "Volver al inicio"
		}
	]
}