{
	"registrarDatos" : [
		{
			"elementH1": "<h1>",
			"title1": "Bienvenido al registro de turno",
			"elementFORM": "<form>",
			"actionFORM": "Main?op=consultandoTurno",
			"methodFORM": "post",
			"elementDIV": "<div>",
			"classDIV": "form-group",
			"elementLABEL": "<label>",
			"elementINPUT": "<input>",
			"typeINPUT": "text",
			"classINPUT": "form-control",
			"typeINPUT2": "number",
			"elementBUTTON": "<button>",
			"typeButton": "submit",
			"classButton": "btn btn-primary",
			"titleButton": "Entrar en la sala de espera"
		}
	],
	"datosNombre" : [
		{
			"forNombre": "name",
			"titleNombre": "Nombre: ",
			"nameNombre": "nombre",
			"idNombre": "name"
		}	
	],
	"datosApellido1" : [
		{
			"forApellido1": "surname1",
			"titleApellido1": "Primer Apellido: ",
			"nameApellido1": "apellido1",
			"idApellido1": "surname1"
		}	
	],
	"datosApellido2" : [
		{
			"forApellido2": "surname2",
			"titleApellido2": "Segundo Apellido: ",
			"nameApellido2": "apellido2",
			"idApellido2": "surname2"
		}	
	],
	"datosEspecialista" : [
		{
			"forEspecialista": "specialist",
			"titleEspecialista": "Especialista: ",
			"nameEspecialista": "especialista",
			"idEspecialista": "specialist"
		}	
	],
	"volverInicio" : [
		{
			"elementFormVolver": "<form>",
			"actionFormVolver": "Main?op=volviendoInicio",
			"methodFormVolver": "post",
			"elementButtonVolver": "<button>",
			"typeButtonVolver": "submit",
			"classButtonVolver": "btn btn-primary",
			"titleButtonVolver": "Volver"
		}
	]
}