{
	"espSala" : [
		{
			"elementh1": "<h1>",
			"titleh1": "Sala de espera",
			"elementForm": "<form>",
			"method": "post",
			"elementButton": "<button>",
			"typeButton": "submit",
			"classButton": "btn btn-primary"
		}
	],
	"llamarPac": [
		{
			"actionFormLlamarP": "Main?op=llamandoPaciente",
			"titleButton": "Llamar al paciente"
		}
	],
	"entrarCon": [
		{
			"actionFormEntrarC": "Main?op=entrandoConsulta",
			"titleButton": "Entrar a la consulta"
		}
	]
}